<?xml version="1.0" encoding="utf-8"?>
<!-- Generator: Adobe Illustrator 21.1.0, SVG Export Plug-In . SVG Version: 6.00 Build 0)  -->
<svg version="1.1" id="Layer_1" xmlns="http://www.w3.org/2000/svg" xmlns:xlink="http://www.w3.org/1999/xlink" x="0px" y="0px"
	 viewBox="0 0 30 30" style="enable-background:new 0 0 30 30;" xml:space="preserve">
<style type="text/css">
	.st0{fill:#FFFFFF;}
</style>
<title>icon-bathrooms</title>
<desc>Created with Sketch.</desc>
<g id="Branding_1_">
	<g id="Iconography_1_" transform="translate(-673.000000, -578.000000)">
		<g id="Map-Icons" transform="translate(68.000000, 450.000000)">
			<g id="ATM" transform="translate(603.000000, 128.000000)">
				<path id="icon-atm" class="st0" d="M24.9,20l-2.1-7.2h-0.1c0.1,1.2,0.2,2.2,0.2,2.9V20h-2.4V10h3.6l2.1,7.1h0.1l2-7.1H32v10
					h-2.5v-4.4c0-0.2,0-0.5,0-0.8c0-0.3,0-1,0.1-2h-0.1l-2,7.2H24.9L24.9,20z M16.8,20h-2.7v-7.8h-2.5V10h7.7v2.2h-2.5V20z
					 M8.2,15.9l-0.4-1.6c-0.1-0.4-0.2-0.8-0.4-1.4c-0.1-0.6-0.2-1-0.3-1.2c0,0.2-0.1,0.6-0.2,1.1s-0.4,1.6-0.8,3.1H8.2z M9.3,20
					l-0.5-1.9H5.5L5,20H2l3.3-10H9l3.3,10H9.3z"/>
			</g>
		</g>
	</g>
</g>
</svg>
