<?xml version="1.0" encoding="utf-8"?>
<!-- Generator: Adobe Illustrator 21.1.0, SVG Export Plug-In . SVG Version: 6.00 Build 0)  -->
<svg version="1.1" id="Layer_1" xmlns="http://www.w3.org/2000/svg" xmlns:xlink="http://www.w3.org/1999/xlink" x="0px" y="0px"
	 viewBox="0 0 30 30" style="enable-background:new 0 0 30 30;" xml:space="preserve">
<style type="text/css">
	.st0{fill:#FFFFFF;}
</style>
<title>icon-bathrooms</title>
<desc>Created with Sketch.</desc>
<g id="Branding">
	<g id="Iconography" transform="translate(-563.000000, -301.000000)">
		<g id="Search-Button-Icons" transform="translate(69.000000, 192.000000)">
			<g id="Services" transform="translate(477.000000, 109.000000)">
				<path id="icon-services" class="st0" d="M45.4,14.5h-3.2l0.4-2.6v-0.1c0-2.3-1.9-4.2-4.2-4.2s-4.2,1.9-4.2,4.2v0.1l0.4,2.6H20.3
					c-0.5,0-0.9,0.4-0.9,0.9s0.4,0.9,0.9,0.9H35L37.1,30h2.7L42,16.3h3.4c0.5,0,0.9-0.4,0.9-0.9S45.9,14.5,45.4,14.5L45.4,14.5z
					 M38.4,5.9c1.6,0,2.9-1.3,2.9-2.9s-1.2-3-2.9-3s-2.9,1.3-2.9,2.9S36.8,5.9,38.4,5.9L38.4,5.9z M23.2,13.9H31l0.3-1.8V12
					c0-2.3-1.9-4.2-4.2-4.2s-4.2,1.9-4.2,4.2v0.1L23.2,13.9z M24.1,3.1c0-1.6,1.3-2.9,2.9-2.9s2.9,1.3,2.9,2.9S28.7,6,27.1,6
					S24.1,4.7,24.1,3.1L24.1,3.1z"/>
			</g>
		</g>
	</g>
</g>
</svg>
