<?xml version="1.0" encoding="utf-8"?>
<!-- Generator: Adobe Illustrator 21.1.0, SVG Export Plug-In . SVG Version: 6.00 Build 0)  -->
<svg version="1.1" id="Layer_1" xmlns="http://www.w3.org/2000/svg" xmlns:xlink="http://www.w3.org/1999/xlink" x="0px" y="0px"
	 viewBox="0 0 30 30" style="enable-background:new 0 0 30 30;" xml:space="preserve">
<style type="text/css">
	.st0{fill:#FFFFFF;}
</style>
<title>icon-bathrooms</title>
<desc>Created with Sketch.</desc>
<g id="Branding">
	<g id="Iconography" transform="translate(-263.000000, -302.000000)">
		<g id="Search-Button-Icons" transform="translate(69.000000, 192.000000)">
			<g id="Bathrooms" transform="translate(171.000000, 110.000000)">
				<path id="icon-bathrooms" class="st0" d="M39.8,29V1.2c0-0.6-0.5-1-1-1s-1,0.5-1,1V29c0,0.6,0.5,1,1,1S39.8,29.5,39.8,29
					L39.8,29z M33.8,13.4c0-2.6-2.2-4.7-4.8-4.7s-4.8,2.1-4.8,4.7L23,20.5c0,0.3,0,0.6,0.2,0.8c0.2,0.2,0.5,0.4,0.8,0.4h1.9
					c0,0,0,0,0,0.1v6.9c0,0.6,0.5,1,1,1s1-0.5,1-1v-6.9c0,0,0,0,0-0.1h2c0,0,0,0,0,0.1v6.9c0,0.6,0.5,1,1,1c0.6,0,1-0.5,1-1v-6.9
					c0,0,0,0,0-0.1h1.9c0.3,0,0.6-0.1,0.8-0.4c0.2-0.2,0.3-0.5,0.2-0.8L33.8,13.4z M48,8.7c-2.6,0-4.8,2.2-4.8,4.8
					c0,0.1,0,0.1,0,0.2l1.2,7.2c0.1,0.4,0.3,0.6,0.6,0.8c0,0.1,0,0.1,0,0.2v6.9c0,0.6,0.5,1,1,1c0.6,0,1-0.5,1-1v-6.9c0,0,0,0,0-0.1
					h2c0,0,0,0,0,0.1v6.9c0,0.6,0.5,1,1,1s1-0.5,1-1v-6.9c0-0.1,0-0.1,0-0.2c0.3-0.1,0.5-0.4,0.6-0.8l1.2-7.2c0-0.1,0-0.1,0-0.2
					C52.8,10.8,50.7,8.7,48,8.7L48,8.7z M29,6.7c-1.8,0-3.4-1.5-3.4-3.4S27.1,0,29,0c1.8,0,3.4,1.5,3.4,3.4S30.8,6.7,29,6.7L29,6.7z
					 M48,6.7c-1.8,0-3.4-1.5-3.4-3.4S46.2,0,48,0s3.4,1.5,3.4,3.4S49.9,6.7,48,6.7L48,6.7z"/>
			</g>
		</g>
	</g>
</g>
</svg>
